{
    "prompter_data": {
        "test_str": "Testing 123!",
        "patterns": [
            "IMPERATIVE+ARTICLE+ADJECTIVE+NOUN",
            "IMPERATIVE+ARTICLE+ADJECTIVE+NOUN+PREPOSITION+ARTICLE+NOUN",
            "IMPERATIVE+ARTICLE+NOUN",
            "IMPERATIVE+POSSESSIVE+NOUN",
            "QPHRASE+ARTICLE+NOUN+?"
        ],
        "q_phrases": [
            "What is",
            "Do you like"
        ],
        "adjectives": [
            "smart",
            "funny",
            "crazy",
            "stupid",
            "hollow",
            "stiff",
            "weird",
            "insane",
            "black",
            "white",
            "green",
            "blue",
            "futuristic",
            "old-timey",
            "transparent",
            "dangerous",
            "mobile",
            "friendly"
        ],
        "nouns": [
            "dog",
            "person",
            "car",
            "toy",
            "battle",
            "planet",
            "galaxy",
            "weapon",
            "computer",
            "cell phone",
            "tree",
            "cup",
            "bag",
            "mom",
            "dad"
        ],
        "possessives": [
            "your",
            "your favorite",
            "your family's"
        ],
        "imperatives": [
            "describe",
            "explain",
            "Write about"
        ],
        "prepositions": [
            "in",
            "around",
            "by"
        ]
    }
}